This is BibTeX, Version 0.99d (TeX Live 2015/Debian)
Capacity: max_strings=35307, hash_size=35307, hash_prime=30011
The top-level auxiliary file: PET detector comparison.aux
The style file: plain.bst
Database file #1: gamma.bib
You've used 23 entries,
            2118 wiz_defined-function locations,
            626 strings with 9042 characters,
and the built_in function-call counts, 10031 in all, are:
= -- 954
> -- 665
< -- 4
+ -- 265
- -- 240
* -- 822
:= -- 1699
add.period$ -- 73
call.type$ -- 23
change.case$ -- 184
chr.to.int$ -- 0
cite$ -- 23
duplicate$ -- 306
empty$ -- 636
format.name$ -- 240
if$ -- 2018
int.to.chr$ -- 0
int.to.str$ -- 23
missing$ -- 25
newline$ -- 118
num.names$ -- 46
pop$ -- 183
preamble$ -- 1
purify$ -- 163
quote$ -- 0
skip$ -- 216
stack$ -- 0
substring$ -- 583
swap$ -- 70
text.length$ -- 4
text.prefix$ -- 0
top$ -- 0
type$ -- 86
warning$ -- 0
while$ -- 82
width$ -- 25
write$ -- 254
