\relax 
\citation{cooper2007smartpet}
\citation{humm2003pet}
\citation{moses1994pet}
\@writefile{toc}{\contentsline {chapter}{\numberline {1}A Survey of Current Photodetector Options for Positron Emission Tomography}{2}}
\@writefile{lof}{\addvspace {10\p@ }}
\@writefile{lot}{\addvspace {10\p@ }}
\@writefile{toc}{\contentsline {section}{\numberline {1.1}Abstract}{2}}
\@writefile{toc}{\contentsline {section}{\numberline {1.2}Introduction}{2}}
\citation{aguiar2010geometrical}
\@writefile{toc}{\contentsline {subsubsection}{Classes of PET detector \cite  {moses1994pet}}{3}}
\@writefile{toc}{\contentsline {section}{\numberline {1.3}Scintillation-based PET photodetectors}{3}}
\citation{lempicki1993fundamental}
\citation{humm2003pet}
\citation{knoll2010radiation}
\@writefile{toc}{\contentsline {subsection}{\numberline {1.3.1}Scintillation efficiency}{4}}
\newlabel{eqn:efficiency}{{1.1}{4}}
\@writefile{toc}{\contentsline {subsection}{\numberline {1.3.2}Scintillator requirements}{4}}
\@writefile{toc}{\contentsline {section}{\numberline {1.4}Photodetectors}{4}}
\@writefile{toc}{\contentsline {subsection}{\numberline {1.4.1}Photomultiplier tube}{4}}
\@writefile{lof}{\contentsline {figure}{\numberline {1.1}{\ignorespaces Structure of a photomultiplier tube (PMT) \cite  {knoll2010radiation}.}}{5}}
\newlabel{fig:pmt}{{1.1}{5}}
\citation{moses2009photodetectors}
\citation{reilly1991passive}
\@writefile{lof}{\contentsline {figure}{\numberline {1.2}{\ignorespaces Structure of a hybrid photodetector \cite  {moses2009photodetectors}.}}{6}}
\newlabel{fig:hpd}{{1.2}{6}}
\@writefile{toc}{\contentsline {subsection}{\numberline {1.4.2}Hybrid photodetectors}{6}}
\@writefile{toc}{\contentsline {subsection}{\numberline {1.4.3}Solid state detectors}{6}}
\citation{reilly1991passive}
\citation{salomon2011simultaneous}
\citation{photonics2013encyclopedia}
\citation{photonics2013encyclopedia}
\@writefile{lof}{\contentsline {figure}{\numberline {1.3}{\ignorespaces Structure of a typical semiconductor (solid state) detector \cite  {reilly1991passive}.}}{7}}
\newlabel{fig:semiconductor_detector}{{1.3}{7}}
\@writefile{toc}{\contentsline {subsubsection}{Photodiodes}{7}}
\citation{knoll2010radiation}
\@writefile{lof}{\contentsline {figure}{\numberline {1.4}{\ignorespaces Schematic of a typical PIN photodiode. The yellow arrow represents incident photons and the green layer represents a non-reflective coating \cite  {photonics2013encyclopedia}.}}{8}}
\newlabel{fig:PD}{{1.4}{8}}
\@writefile{toc}{\contentsline {subsection}{\numberline {1.4.4}Avalanche Photodiodes}{8}}
\citation{pepin2010new}
\citation{roncali2011application}
\@writefile{toc}{\contentsline {subsection}{\numberline {1.4.5}Geiger-mode Avalanche Photodiodes}{9}}
\@writefile{toc}{\contentsline {subsection}{\numberline {1.4.6}Silicon photomultipliers}{9}}
\@writefile{toc}{\contentsline {subsubsection}{Mode of operation}{9}}
\@writefile{lof}{\contentsline {figure}{\numberline {1.5}{\ignorespaces Structure of a silicon photomultiplier.}}{10}}
\newlabel{fig:sipm}{{1.5}{10}}
\@writefile{lof}{\contentsline {figure}{\numberline {1.6}{\ignorespaces Single G-APD cell: a p-n junction with a very thin depletion layer between $p^+$ and $n^+$ layers.}}{10}}
\newlabel{fig:sipm_single_cell}{{1.6}{10}}
\citation{degenhardt2012performance}
\citation{frach2009digital}
\citation{degenhardt2012performance}
\citation{frach2009digital}
\citation{frach2010digital}
\citation{degenhardt2012performance}
\citation{cooper2007smartpet}
\citation{khandaker2011high}
\citation{khandaker2011high}
\citation{lechner1996silicon}
\@writefile{toc}{\contentsline {subsection}{\numberline {1.4.7}Digital silicon photomultipliers}{11}}
\@writefile{toc}{\contentsline {subsection}{\numberline {1.4.8}High purity germanium detector}{11}}
\@writefile{lof}{\contentsline {figure}{\numberline {1.7}{\ignorespaces Arrays of 8x8 dSiPMs \cite  {degenhardt2012performance}.}}{12}}
\newlabel{fig:dSiPM}{{1.7}{12}}
\@writefile{lof}{\contentsline {figure}{\numberline {1.8}{\ignorespaces Structure of an $n$-type high purity germanium semiconductor detector \cite  {khandaker2011high}.}}{12}}
\newlabel{fig:HPGe}{{1.8}{12}}
\citation{lechner1996silicon}
\citation{busca2010silicon}
\citation{lechner1996silicon}
\citation{takeda2008double}
\citation{weilhammer1998recent}
\citation{manfredotti1998cvd}
\@writefile{lof}{\contentsline {figure}{\numberline {1.9}{\ignorespaces Structure of a silicon drift detectors\cite  {lechner1996silicon}.}}{13}}
\newlabel{fig:sdd}{{1.9}{13}}
\@writefile{toc}{\contentsline {subsection}{\numberline {1.4.9}Silicon drift detectors}{13}}
\@writefile{toc}{\contentsline {subsection}{\numberline {1.4.10}Silicon Strip Detectors}{13}}
\citation{manfredotti1998cvd}
\citation{weilhammer1998recent}
\citation{bailey2005positron}
\@writefile{lof}{\contentsline {figure}{\numberline {1.10}{\ignorespaces Structure of the double sided silicon strip detector\cite  {takeda2008double}.}}{14}}
\newlabel{fig:ssd}{{1.10}{14}}
\@writefile{toc}{\contentsline {subsection}{\numberline {1.4.11}CVD diamond detectors}{14}}
\@writefile{toc}{\contentsline {section}{\numberline {1.5}Gas-filled detectors (ionisation chambers)}{14}}
\citation{reilly1991passive}
\citation{cherry2012physics}
\@writefile{lof}{\contentsline {figure}{\numberline {1.11}{\ignorespaces Structure of gas-filled detectors \cite  {reilly1991passive}.}}{15}}
\newlabel{fig:gas}{{1.11}{15}}
\@writefile{toc}{\contentsline {subsection}{\numberline {1.5.1}Geiger-Mueller (GM) detector}{15}}
\@writefile{toc}{\contentsline {section}{\numberline {1.6}Conclusion}{15}}
\bibdata{gamma}
\bibcite{aguiar2010geometrical}{1}
\bibcite{bailey2005positron}{2}
\bibcite{busca2010silicon}{3}
\bibcite{cherry2012physics}{4}
\bibcite{cooper2007smartpet}{5}
\bibcite{degenhardt2012performance}{6}
\bibcite{frach2009digital}{7}
\bibcite{frach2010digital}{8}
\bibcite{humm2003pet}{9}
\bibcite{khandaker2011high}{10}
\bibcite{knoll2010radiation}{11}
\bibcite{lechner1996silicon}{12}
\bibcite{lempicki1993fundamental}{13}
\bibcite{manfredotti1998cvd}{14}
\bibcite{moses2009photodetectors}{15}
\bibcite{moses1994pet}{16}
\bibcite{pepin2010new}{17}
\bibcite{photonics2013encyclopedia}{18}
\bibcite{reilly1991passive}{19}
\bibcite{roncali2011application}{20}
\bibcite{salomon2011simultaneous}{21}
\bibcite{takeda2008double}{22}
\bibcite{weilhammer1998recent}{23}
\bibstyle{plain}
